    1  git clone https://Sayani@gitlab.com/cgi-tibco-bwce/dev-box.git
    2  vagrant up hemangajmera/centos7-gnome
    3  cd c:/POC_BWCE/dev-box
    4  vagrant up hemangajmera/centos7-gnome
    5  vagrant up hemangajmera/centos7-gnome
    6  vagrant box add hemangajmera/centos7-gnome
    7  vagrant up
    8  vagrant up
    9  vagrant ssh
   10  vagrant status
   11  vagrant up
   12  vagrant up
   13  vagrant up
   14  vagrant up
   15  vagrant up
   16  vagrant provision
   17  ls
   18  dos2unix tibco_install.sh
   19  ./tibco_install.sh
   20  ls
   21  vi tibco_install.sh
   22  cd tibco
   23  filename=TIB_bwce_2.2.1_linux26gl23_x86_64.zip
   24  mkdir tmp
   25  cd tmp
   26  unzip ../$filename
   27  ./TIBCOUniversalInstaller-lnx-x86-64.bin -silent
   28  cd tibco
   29  ../
   30  cd ../
   31  unzip ../$filename
   32  ./TIBCOUniversalInstaller-lnx-x86-64.bin -silent
   33  ./TIBCOUniversalInstaller-lnx-x86-64.bin -silent
   34  cd tibco
   35  ./TIBCOUniversalInstaller-lnx-x86-64.bin -silent
   36  docker start jenkins
   37  #docker run --name jenkins -d -p 49001:8080 -v $PWD/jenkins_home:/var/jenkins_home:z -t jenkins --prefix=/jenkins
   38  history
   39  history > 1.txt
